{
  "matches": [
    {
      "email": "tychambers3@gmail.com",
      "username": "chambers43",
      "firstName": "Tyrel",
      "lastName": "Chambers",
      "gender": "male",
      "photos": [],
      "age": 26,
      "height": 180,
      "location": "Peterborough, Ontario, Canada",
      "smoke": "No",
      "drink": "No",
      "religion": "Christian",
      "relationshipType": "Marriage",
      "job": "IT",
      "education": "college",
      "ethnicity": "caucasian/white",
      "language": "english",
      "relocation": "yes",
      "birthday": "1992-09-07",
      "profileImg": "https://images.unsplash.com/photo-1464863979621-258859e62245?ixlib=rb-1.2.1&ixid=eyJhcHBfaWQiOjEyMDd9&auto=format&fit=crop&w=933&q=80",
      "summary": "Lorem ipsum dolor amet banh mi blue bottle direct trade everyday carry, tumblr truffaut gluten-free beard knausgaard cronut hoodie asymmetrical kickstarter copper mug. Food truck tofu XOXO hashtag ramps activated charcoal man braid pabst helvetica. Yr sartorial tote bag, pour-over fashion axe tofu green juice bitters polaroid occupy. Deep v food truck hashtag, meh shaman tousled shabby chic hot chicken humblebrag squid YOLO butcher. Mixtape slow-carb brooklyn, listicle chillwave affogato chambray. Everyday carry austin kitsch sriracha taiyaki vaporware."
    },
    {
      "email": "tychambers3@gmail.com",
        "username": "chambers43",
        "firstName": "Tyrel",
        "lastName": "Chambers",
        "gender": "male",
        "age": 26,
        "height": 180,
        "location": "Peterborough, Ontario, Canada",
        "smoke": "No",
        "drink": "No",
        "religion": "Christian",
        "photos": [],
        "relationshipType": "Marriage",
        "job": "IT",
        "education": "college",
        "ethnicity": "caucasian/white",
        "language": "english",
        "relocation": "yes",
        "birthday": "1992-09-07",
        "profileImg": "https://images.unsplash.com/photo-1464863979621-258859e62245?ixlib=rb-1.2.1&ixid=eyJhcHBfaWQiOjEyMDd9&auto=format&fit=crop&w=933&q=80"
    },
    {
     "email": "tychambers3@gmail.com",
        "username": "chambers43",
        "firstName": "Tyrel",
        "lastName": "Chambers",
        "gender": "male",
        "age": 26,
        "height": 180,
        "location": "Peterborough, Ontario, Canada",
        "smoke": "No",
        "drink": "No",
        "religion": "Christian",
        "photos": [],
        "relationshipType": "Marriage",
        "job": "IT",
        "education": "college",
        "ethnicity": "caucasian/white",
        "language": "english",
        "relocation": "yes",
        "birthday": "1992-09-07",
        "profileImg": "https://images.unsplash.com/photo-1464863979621-258859e62245?ixlib=rb-1.2.1&ixid=eyJhcHBfaWQiOjEyMDd9&auto=format&fit=crop&w=933&q=80"
    },
    {
     "email": "tychambers3@gmail.com",
        "username": "chambers43",
        "firstName": "Tyrel",
        "lastName": "Chambers",
        "gender": "male",
        "age": 26,
        "height": 180,
        "location": "Peterborough, Ontario, Canada",
        "smoke": "No",
        "drink": "No",
        "religion": "Christian",
        "photos": [],
        "relationshipType": "Marriage",
        "job": "IT",
        "education": "college",
        "ethnicity": "caucasian/white",
        "language": "english",
        "relocation": "yes",
        "birthday": "1992-09-07",
        "profileImg": "https://images.unsplash.com/photo-1464863979621-258859e62245?ixlib=rb-1.2.1&ixid=eyJhcHBfaWQiOjEyMDd9&auto=format&fit=crop&w=933&q=80"
    },
    {
      "email": "tychambers3@gmail.com",
         "username": "chambers43",
         "firstName": "Tyrel",
         "lastName": "Chambers",
         "gender": "male",
         "age": 26,
         "height": 180,
         "location": "Peterborough, Ontario, Canada",
         "smoke": "No",
         "drink": "No",
         "religion": "Christian",
         "photos": [],
         "relationshipType": "Marriage",
         "job": "IT",
         "education": "college",
         "ethnicity": "caucasian/white",
         "language": "english",
         "relocation": "yes",
         "birthday": "1992-09-07",
         "profileImg": "https://images.unsplash.com/photo-1464863979621-258859e62245?ixlib=rb-1.2.1&ixid=eyJhcHBfaWQiOjEyMDd9&auto=format&fit=crop&w=933&q=80"
     }
  ]
}